Model		Memory		screen	Price
iPhone 7Plus	256GB 		5.5 	27990000
iPhone 7Plus 	128GB		5.5 	25190000
iPhone 7 	256GB		4.7 	24590000
iPhone 7Plus 	32GB		5.5 	22290000
iPhone 6sPlus 	64GB		5.5 	19990000
iPhone 7 	128GB		4.7 	21690000
iPhone 6sPlus	32GB		5.5 	18890000
iPhone 6s	128GB		4.7 	18890000
iPhone 7 	32GB 		4.7 	18790000
HTC U Ultra 	64GB 		5.7 	18490000
SamGS7EdgeCoral	32GB		5.5 	16990000
SamGS7EdgeBlack	128GB		5.5 	16990000
SamGS7Edge 	32GB 		5.5 	16990000
Xiao Mi MIX 	256GB		6.4 	16990000
Sony Xperia XZ 	64GB 		5.2 	12990000
SGNote5 	32GB 		5.7 	12490000
HTC U Play 	64GB 		5.2 	11490000
SG A9 Pro 	32GB 		6.0 	10990000
iPhone SE 	64GB 		4.0 	11990000
