Basic
	- Insertion sort
	- Selection sort
	- Bubble sort
_____________________________
Insertion sort:
	  * Strategy of Card players
	  * Sort list by
	    - Finding first unsorted element in list
	    - Moving it to its proper position
	    - Efficiency: O(n^2)
	    
