iPhone 7Plus		256GB 	5.5 	454.0
iPhone 7Plus 		128GB	5.5 	34534.0
iPhone 7 		256GB	4.7 	45345.0
iPhone 7Plus 		32GB	5.5 	4353.0
iPhone 6sPlus 		64GB	5.5 	34534.0
iPhone 7 		128GB	4.7 	45645.0
iPhone 6sPlus		32GB	5.5 	343.0
iPhone 6s		128GB	4.7 	456.0
iPhone 7 		32GB 	4.7 	56456.0
HTC U Ultra 		64GB 	5.7 	4564.0
SamGS7EdgeCoral		32GB	5.5 	45645.0
SamGS7EdgeBlack		128GB	5.5 	3453.0
SamGS7Edge 		32GB 	5.5 	3325.0
Xiao Mi MIX 		256GB	6.4 	345345.0
Sony Xperia XZ 		64GB 	5.2 	34534.0
SGNote5 		32GB 	5.7 	654.0
HTC U Play 		64GB 	5.2 	45645.0
SG A9 Pro 		32GB 	6.0 	67564.0
iPhone SE 		64GB 	4.0 	456.0
